**************************************************************************
**************************************************************************
**************************************************************************
******                                                                ****
******  MXYZPTLK:  A C++ implementation of differential algebra.      ****
******                                                                ****
******  Copyright (c) 1990  Universities Research Association, Inc.   ****
******                All Rights Reserved                             ****
******                                                                ****
******  Author:    Leo Michelotti                                     ****
******                                                                ****
******             Fermilab                                           ****
******             P.O.Box 500                                        ****
******             Mail Stop 345                                      ****
******             Batavia, IL   60510                                ****
******                                                                ****
******             Phone: (708) 840 4956                              ****
******             Email: michelot@hazel.fnal.gov                     ****
******                    michelotti@adcalc.fnal.gov                  ****
******                    almond::michelotti                          ****
******                                                                ****
******  Release    Version 1.0 : January 31, 1990                     ****
******  Dates:              .1 : October 11, 1990                     ****
******                      .2 : November 6, 1990                     ****
******                      .3 : October  2, 1992                     ****
******                      .4 : July    20, 1993                     ****
******                     2.0   August  12, 1993                     ****
******                                                                ****
**************************************************************************
**************************************************************************
******                                                                ****
******  This material resulted from work developed under a            ****
******  Government Contract and is subject to the following           ****
******  license: The Government retains a paid-up, nonexclusive,      ****
******  irrevocable worldwide license to reproduce, prepare           ****
******  derivative works, perform publicly and display publicly       ****
******  by or for the Government, including the right to distribute   ****
******  to other Government contractors.  Neither the United          ****
******  States nor the United States Department of Energy, nor        ****
******  any of their employees, makes any warranty, express or        ****
******  implied, or assumes any legal liability or responsibility     ****
******  for the accuracy, completeness or usefulness of any           ****
******  information, apparatus, product, or process disclosed, or     ****
******  represents that its use would not infringe privately owned    ****
******  rights.                                                       ****
******                                                                ****
******  These files are made avaliable for use by specific            ****
******  individuals or a specific group.  They are not to be          ****
******  reproduced or redistributed.                                  ****
******                                                                ****
******  These files are provided "as is" with no warranties of any    ****
******  kind including the warranties of design,                      ****
******  merchantibility and fitness for a particular purpose,         ****
******  or arising from a course of dealing, usage or trade           ****
******  practice.                                                     ****
******                                                                ****
******  These files are provided with no support or obligation on     ****
******  the part of U.R.A. or Fermilab to assist in their use,        ****
******  correction, modification or enhancement.                      ****
******                                                                ****
******  Neither U.R.A. nor Fermilab shall be liable with              ****
******  respect to the infringement of copyrights, trade              ****
******  secrets or any patents by these files or any part             ****
******  thereof.                                                      ****
******                                                                ****
******  In no event will U.R.A., Fermilab, or the author(s) be        ****
******  liable for any lost revenue or profits or other               ****
******  special, indirect and consequential damages, even if          ****
******  they have been advised of the possibility of such             ****
******  damages.                                                      ****
******                                                                ****
**************************************************************************
**************************************************************************
******                                                                ****
******  The MXYZPTLK source code is under continual development       ****
******  It is made available to those who want to play around         ****
******  with it in whatever its current state, but users are          ****
******  advised to check occasionally for upgrades.  If you           ****
******  register at the email address michelot@hazel.fnal.gov I       ****
******  will put you on the announcement list for all major           ****
******  changes.                                                      ****
******                                                                ****
******  If you yourself make improvements or corrections,             ****
******  please let me know.  Full recognition will be given in        ****
******  header files and documentation for all contributions.         ****
******                                                                ****
******  And please do not redistribute MXYZPTLK beyond your           ****
******  group: I do not want earlier versions of the source           ****
******  taking on a lives of their own.  Thank you.                   ****
******                                                                ****
******  NOTE: As a (temporary?) vestigial limitation, MXYZPTLK        ****
******  uses a (very) few utility routines from Numerical             ****
******  Recipes in C.  These are listed in the numrecip.hxx           ****
******  file.  The first few lines of the Makefile must be            ****
******  modified so as to refer correctly to your local               ****
******  Numerical Recipes library.                                    ****
******                                                                ****
******  To build the library, copy the files in this directory        ****
******  and, after editing the Makefile, enter the command            ****
******  "rebuild."  If all goes as planned, the library               ****
******  libmxyzptlk.a will be constructed; source code and            ****
******  documentation will also be placed into subdirectories.        ****
******  The code is known to compile under Centerline C++; it         ****
******  will also work with GNU's g++ with a few minor changes:       ****
******  things like (a) stdlib.h -> std.h and (b) Complex ->          ****
******  complex.  Ignore all the C++ compiler warnings: I may         ****
******  to cleaning them up eventually.                               ****
******                                                                ****
******                                                                ****
******  ... Leo Michelotti                                            ****
******                                                                ****
******                                                                ****
**************************************************************************
**************************************************************************
