            1  SET FONT DUPLEX                                                                 
            2  SET SIZE 13.2 BY 10.2                                                           
            3  SET WINDOW Y FROM 1.0 TO 8.5                                                    
            4  SET WINDOW X FROM 1.0 TO 12.3                                                   
            5  TITLE  3.5 9.3 SIZE 3 'Plan view of beamline pta.flat'                          
            6  TITLE 0.1 5.0 ANGLE 90 'X (m) '                                                 
            7  TITLE BOTTOM 'Z (m) '                                                           
            8  SET LIMITS X FROM -7.000000 TO 7.000000                                         
            9  SET LIMITS Y FROM -4.000000 TO 4.000000                                         
           10  3.880000 2.430000                                                               
           11  3.948605 2.416093                                                               
           12  4.017209 2.402186                                                               
           13  JOIN 1                                                                          
